[
    {
        "image_url": "https://bytebucket.org/pgalazka/markers/raw/HEAD/banners/baner_warsztat.jpg",
        "url": "https://m.leroymerlin.pl/warsztat,a105.html"
    },
    {
        "image_url": "https://bytebucket.org/pgalazka/markers/raw/HEAD/banners/baner_lazienka.jpg",
        "url": "https://m.leroymerlin.pl/meble-lazienkowe/zestawy-i-elementy-mebli-lazienkowych,a527.html"
    },
    {
        "image_url": "https://bytebucket.org/pgalazka/markers/raw/HEAD/banners/baner_glazury.jpg",
        "url": "https://m.leroymerlin.pl/plytki-ceramiczne-i-gipsowe/plytki-podlogowe/plytki-do-wewnatrz,a2539.html"
    },
    {
        "image_url": "https://bytebucket.org/pgalazka/markers/raw/HEAD/banners/baner_drewno.jpg",
        "url": "https://m.leroymerlin.pl/dj-ah-sierpien-drzwi-podlogi-2018.html"
    },
    {
        "image_url": "https://bytebucket.org/pgalazka/markers/raw/HEAD/banners/baner_szkola.jpg",
        "url": "https://www.leroymerlin.pl/dj-ah-powrot-do-szkoly-2018.html"
    }
]